\relax 
\providecommand\hyper@newdestlabel[2]{}
\providecommand\HyperFirstAtBeginDocument{\AtBeginDocument}
\HyperFirstAtBeginDocument{\ifx\hyper@anchor\@undefined
\global\let\oldcontentsline\contentsline
\gdef\contentsline#1#2#3#4{\oldcontentsline{#1}{#2}{#3}}
\global\let\oldnewlabel\newlabel
\gdef\newlabel#1#2{\newlabelxx{#1}#2}
\gdef\newlabelxx#1#2#3#4#5#6{\oldnewlabel{#1}{{#2}{#3}}}
\AtEndDocument{\ifx\hyper@anchor\@undefined
\let\contentsline\oldcontentsline
\let\newlabel\oldnewlabel
\fi}
\fi}
\global\let\hyper@last\relax 
\gdef\HyperFirstAtBeginDocument#1{#1}
\providecommand\HyField@AuxAddToFields[1]{}
\providecommand\HyField@AuxAddToCoFields[2]{}
\@writefile{toc}{\contentsline {chapter}{Acknowledgments}{iii}{section*.1}}
\@writefile{toc}{\contentsline {chapter}{Abstract}{vii}{section*.2}}
\@writefile{toc}{\contentsline {chapter}{Table of Contents}{ix}{section*.3}}
\citation{VNI2008}
\citation{Motorola2009}
\citation{Chen2004}
\citation{Goswami2012}
\citation{5gmobile}
\citation{Lin2004}
\@writefile{toc}{\contentsline {chapter}{List of Figures}{xiii}{section*.5}}
\citation{OptusLicences}
\@writefile{toc}{\contentsline {chapter}{List of Tables}{xv}{section*.7}}
\citation{VNI2015}
\citation{Shakil2008}
\citation{VNI2008}
\citation{VNI2008}
\@writefile{toc}{\contentsline {chapter}{\numberline {1}Introduction}{1}{chapter.1}}
\@writefile{lof}{\addvspace {10\p@ }}
\@writefile{lot}{\addvspace {10\p@ }}
\newlabel{chap:Introduction}{{1}{1}{Introduction}{chapter.1}{}}
\@writefile{lof}{\contentsline {figure}{\numberline {1.1}{\ignorespaces Exponential increase in mobile internet usage. \cite  {VNI2008}\relax }}{2}{figure.caption.9}}
\providecommand*\caption@xref[2]{\@setref\relax\@undefined{#1}}
\newlabel{fig:ucaa}{{1.1}{2}{Exponential increase in mobile internet usage. \cite {VNI2008}\relax }{figure.caption.9}{}}
\@writefile{toc}{\contentsline {section}{\numberline {1.1}Project Goal}{2}{section.1.1}}
\@writefile{toc}{\contentsline {section}{\numberline {1.2}Definitions and Abbreviations}{3}{section.1.2}}
\@writefile{toc}{\contentsline {subsection}{\numberline {1.2.1}Abbreviations}{3}{subsection.1.2.1}}
\@writefile{toc}{\contentsline {subsection}{\numberline {1.2.2}Definitions}{4}{subsection.1.2.2}}
\@writefile{toc}{\contentsline {chapter}{\numberline {2}Background and Related Work}{7}{chapter.2}}
\@writefile{lof}{\addvspace {10\p@ }}
\@writefile{lot}{\addvspace {10\p@ }}
\newlabel{chap:LitReview}{{2}{7}{Background and Related Work}{chapter.2}{}}
\@writefile{toc}{\contentsline {section}{\numberline {2.1}Mobile Networks and Wireless Communication}{7}{section.2.1}}
\@writefile{toc}{\contentsline {subsection}{\numberline {2.1.1}Local Area Networks}{7}{subsection.2.1.1}}
\citation{Shakil2008}
\@writefile{toc}{\contentsline {subsection}{\numberline {2.1.2}Wide Area Networks}{8}{subsection.2.1.2}}
\citation{802.11Standard}
\citation{Motorola2009}
\citation{Motorola2009}
\@writefile{lof}{\contentsline {figure}{\numberline {2.1}{\ignorespaces The difference in attenuation between 2.4GHz and 5GHz signals. \cite  {Motorola2009}\relax }}{9}{figure.caption.11}}
\newlabel{fig:ucaa}{{2.1}{9}{The difference in attenuation between 2.4GHz and 5GHz signals. \cite {Motorola2009}\relax }{figure.caption.11}{}}
\@writefile{toc}{\contentsline {subsection}{\numberline {2.1.3}Access Points}{9}{subsection.2.1.3}}
\@writefile{toc}{\contentsline {subsubsection}{Wi-Fi Wireless Router}{9}{section*.10}}
\@writefile{toc}{\contentsline {subsubsection}{Mobile Cell Tower}{9}{section*.12}}
\citation{OptusLicences}
\citation{OptusLicences}
\citation{Ye2013}
\@writefile{lot}{\contentsline {table}{\numberline {2.1}{\ignorespaces Frequency Bands used by Optus for mobile communications. \cite  {OptusLicences}\relax }}{10}{table.caption.13}}
\newlabel{OptusFreqTable}{{2.1}{10}{Frequency Bands used by Optus for mobile communications. \cite {OptusLicences}\relax }{table.caption.13}{}}
\citation{3gpp.23.009}
\citation{Chin2015}
\@writefile{lof}{\contentsline {figure}{\numberline {2.2}{\ignorespaces A conceptual example of interference patterns forming along with a shadow. Made using the Ripple Wave simulation at http://www.falstad.com/ripple/\relax }}{11}{figure.caption.14}}
\newlabel{interference}{{2.2}{11}{A conceptual example of interference patterns forming along with a shadow. Made using the Ripple Wave simulation at http://www.falstad.com/ripple/\relax }{figure.caption.14}{}}
\@writefile{toc}{\contentsline {section}{\numberline {2.2}Types of Network Handover}{11}{section.2.2}}
\@writefile{toc}{\contentsline {subsubsection}{Hard and Soft Handover}{11}{section*.15}}
\citation{Chen2004}
\citation{Chen2004}
\citation{Bakker1999}
\citation{Stemm1998}
\citation{Tu2013}
\@writefile{lof}{\contentsline {figure}{\numberline {2.3}{\ignorespaces Horizontal and Vertical Handover, here called Handoff. \cite  {Chen2004}\relax }}{12}{figure.caption.17}}
\newlabel{fig:ucaa}{{2.3}{12}{Horizontal and Vertical Handover, here called Handoff. \cite {Chen2004}\relax }{figure.caption.17}{}}
\@writefile{toc}{\contentsline {subsubsection}{Horizontal and Vertical Handover}{12}{section*.16}}
\@writefile{toc}{\contentsline {subsubsection}{Cost of Handover}{12}{section*.18}}
\citation{Goswami2012}
\citation{Goswami2012}
\citation{Gudmundson1994}
\citation{Yang2006}
\citation{5gmobile}
\citation{5gmobile}
\@writefile{lof}{\contentsline {figure}{\numberline {2.4}{\ignorespaces A Standard non-predictive handover algorithm. \cite  {Goswami2012}\relax }}{13}{figure.caption.19}}
\newlabel{fig:ucaa}{{2.4}{13}{A Standard non-predictive handover algorithm. \cite {Goswami2012}\relax }{figure.caption.19}{}}
\@writefile{toc}{\contentsline {section}{\numberline {2.3}Algorithms Governing Handover}{13}{section.2.3}}
\@writefile{toc}{\contentsline {subsection}{\numberline {2.3.1}Greedy Handover Algorithm}{13}{subsection.2.3.1}}
\citation{5gmobile}
\citation{Lin2004}
\citation{Lin2004}
\citation{Lin2004}
\@writefile{lof}{\contentsline {figure}{\numberline {2.5}{\ignorespaces A Standard predictive handover algorithm. \cite  {5gmobile}\relax }}{14}{figure.caption.20}}
\newlabel{fig:ucaa}{{2.5}{14}{A Standard predictive handover algorithm. \cite {5gmobile}\relax }{figure.caption.20}{}}
\@writefile{toc}{\contentsline {subsection}{\numberline {2.3.2}Predictive Handover Algorithm}{14}{subsection.2.3.2}}
\@writefile{toc}{\contentsline {subsection}{\numberline {2.3.3}Location Based Handover Algorithm}{14}{subsection.2.3.3}}
\@writefile{toc}{\contentsline {subsection}{\numberline {2.3.4}Proposal of an Improved Location Based Technique}{14}{subsection.2.3.4}}
\@writefile{lof}{\contentsline {figure}{\numberline {2.6}{\ignorespaces A Standard location based handover algorithm. \cite  {Lin2004}\relax }}{15}{figure.caption.21}}
\newlabel{fig:ucaa}{{2.6}{15}{A Standard location based handover algorithm. \cite {Lin2004}\relax }{figure.caption.21}{}}
\@writefile{toc}{\contentsline {chapter}{\numberline {3}Development of the Network Mapping System}{17}{chapter.3}}
\@writefile{lof}{\addvspace {10\p@ }}
\@writefile{lot}{\addvspace {10\p@ }}
\newlabel{chap:development}{{3}{17}{Development of the Network Mapping System}{chapter.3}{}}
\@writefile{toc}{\contentsline {section}{\numberline {3.1}Development Process}{17}{section.3.1}}
\@writefile{toc}{\contentsline {subsection}{\numberline {3.1.1}Constraints}{17}{subsection.3.1.1}}
\@writefile{toc}{\contentsline {subsection}{\numberline {3.1.2}Requirements}{18}{subsection.3.1.2}}
\@writefile{toc}{\contentsline {section}{\numberline {3.2}Android Application Specification}{18}{section.3.2}}
\@writefile{toc}{\contentsline {subsection}{\numberline {3.2.1}Usage and Use Cases}{18}{subsection.3.2.1}}
\@writefile{lof}{\contentsline {figure}{\numberline {3.1}{\ignorespaces Use Case Diagram for the Android Application.\relax }}{19}{figure.caption.22}}
\newlabel{fig:ucaa}{{3.1}{19}{Use Case Diagram for the Android Application.\relax }{figure.caption.22}{}}
\@writefile{lof}{\contentsline {figure}{\numberline {3.2}{\ignorespaces Flow Chart for Android Application.\relax }}{19}{figure.caption.23}}
\newlabel{fig:fcaa}{{3.2}{19}{Flow Chart for Android Application.\relax }{figure.caption.23}{}}
\@writefile{toc}{\contentsline {subsubsection}{Manual Mapping}{19}{section*.24}}
\@writefile{toc}{\contentsline {subsubsection}{Automated Mapping}{20}{section*.25}}
\@writefile{toc}{\contentsline {subsubsection}{Data Caching and Upload}{20}{section*.26}}
\@writefile{lof}{\contentsline {figure}{\numberline {3.3}{\ignorespaces Example of network polling screen where all data is collected. Currently set to Manual mode.\relax }}{21}{figure.caption.27}}
\@writefile{toc}{\contentsline {subsection}{\numberline {3.2.2}User Interface}{21}{subsection.3.2.2}}
\@writefile{toc}{\contentsline {subsubsection}{Network Polling Setup Screen}{21}{section*.28}}
\@writefile{toc}{\contentsline {subsubsection}{Data Collection Screen}{22}{section*.29}}
\@writefile{toc}{\contentsline {subsubsection}{Cache Screen}{22}{section*.30}}
\@writefile{toc}{\contentsline {subsubsection}{Settings Screen}{22}{section*.31}}
\@writefile{toc}{\contentsline {subsubsection}{About Screen}{23}{section*.32}}
\@writefile{toc}{\contentsline {subsection}{\numberline {3.2.3}Components}{23}{subsection.3.2.3}}
\@writefile{toc}{\contentsline {subsubsection}{Location Manager}{23}{section*.33}}
\@writefile{toc}{\contentsline {subsubsection}{Network Manager}{23}{section*.34}}
\@writefile{toc}{\contentsline {subsubsection}{Web Adapter}{24}{section*.35}}
\@writefile{toc}{\contentsline {subsubsection}{Cache}{24}{section*.36}}
\@writefile{toc}{\contentsline {subsubsection}{Data Point}{24}{section*.37}}
\@writefile{lof}{\contentsline {figure}{\numberline {3.4}{\ignorespaces Flow Chart describing the generation of a Data Point.\relax }}{25}{figure.caption.38}}
\newlabel{fig:fcdp}{{3.4}{25}{Flow Chart describing the generation of a Data Point.\relax }{figure.caption.38}{}}
\@writefile{toc}{\contentsline {section}{\numberline {3.3}Web Application Specification}{25}{section.3.3}}
\@writefile{toc}{\contentsline {subsection}{\numberline {3.3.1}Usage and Use Cases}{25}{subsection.3.3.1}}
\@writefile{lof}{\contentsline {figure}{\numberline {3.5}{\ignorespaces Use Case Diagram for the Web Application.\relax }}{26}{figure.caption.39}}
\newlabel{fig:ucwa}{{3.5}{26}{Use Case Diagram for the Web Application.\relax }{figure.caption.39}{}}
\@writefile{toc}{\contentsline {subsection}{\numberline {3.3.2}User Interface}{26}{subsection.3.3.2}}
\@writefile{lof}{\contentsline {figure}{\numberline {3.6}{\ignorespaces Maps page displaying results from a single 4g tower along the M2.\relax }}{27}{figure.caption.40}}
\@writefile{toc}{\contentsline {subsubsection}{Home Page}{27}{section*.41}}
\@writefile{toc}{\contentsline {subsubsection}{Search Page}{27}{section*.42}}
\@writefile{toc}{\contentsline {subsubsection}{Maps Page}{27}{section*.43}}
\@writefile{toc}{\contentsline {subsubsection}{Script Editor Page}{28}{section*.44}}
\@writefile{toc}{\contentsline {subsection}{\numberline {3.3.3}Components}{28}{subsection.3.3.3}}
\@writefile{toc}{\contentsline {subsubsection}{Database Adapter}{28}{section*.45}}
\@writefile{toc}{\contentsline {subsubsection}{REST API}{28}{section*.46}}
\@writefile{toc}{\contentsline {subsubsection}{Data Search and Selection}{28}{section*.47}}
\citation{Bug60430}
\@writefile{toc}{\contentsline {subsubsection}{Dynamic Data Visualization}{29}{section*.48}}
\@writefile{toc}{\contentsline {subsection}{\numberline {3.3.4}Data Validation}{29}{subsection.3.3.4}}
\@writefile{toc}{\contentsline {section}{\numberline {3.4}Testing And Quality Assurance}{29}{section.3.4}}
\@writefile{toc}{\contentsline {chapter}{\numberline {4}Data Collection}{31}{chapter.4}}
\@writefile{lof}{\addvspace {10\p@ }}
\@writefile{lot}{\addvspace {10\p@ }}
\newlabel{chap:dataCollection}{{4}{31}{Data Collection}{chapter.4}{}}
\@writefile{toc}{\contentsline {section}{\numberline {4.1}Collected Data}{31}{section.4.1}}
\@writefile{lot}{\contentsline {table}{\numberline {4.1}{\ignorespaces Fields Stored in the MySQL database\relax }}{32}{table.caption.49}}
\newlabel{MYSQLDB}{{4.1}{32}{Fields Stored in the MySQL database\relax }{table.caption.49}{}}
\@writefile{toc}{\contentsline {subsection}{\numberline {4.1.1}Hardware and Network Provider}{33}{subsection.4.1.1}}
\@writefile{toc}{\contentsline {section}{\numberline {4.2}Database and Formatting}{33}{section.4.2}}
\citation{3gpp.23.003}
\@writefile{toc}{\contentsline {section}{\numberline {4.3}Expectations and Hypothesis}{35}{section.4.3}}
\@writefile{toc}{\contentsline {subsection}{\numberline {4.3.1}Buildings as Signal Obstructions}{35}{subsection.4.3.1}}
\@writefile{lof}{\contentsline {figure}{\numberline {4.1}{\ignorespaces An example of what the signal strength along a path may look like for 3 access points that are obstructed by buildings. \relax }}{36}{figure.caption.50}}
\newlabel{fig:building-expectation}{{4.1}{36}{An example of what the signal strength along a path may look like for 3 access points that are obstructed by buildings. \relax }{figure.caption.50}{}}
\citation{Pedersen2016}
\citation{AndroidSignalStrength}
\@writefile{toc}{\contentsline {section}{\numberline {4.4}Controls and Methods of Collection}{37}{section.4.4}}
\@writefile{toc}{\contentsline {subsection}{\numberline {4.4.1}Spatial Collection}{37}{subsection.4.4.1}}
\@writefile{toc}{\contentsline {subsubsection}{Macquarie University}{37}{section*.51}}
\@writefile{toc}{\contentsline {subsubsection}{Motorway 2}{38}{section*.52}}
\@writefile{toc}{\contentsline {subsection}{\numberline {4.4.2}Temporal Collection}{38}{subsection.4.4.2}}
\@writefile{toc}{\contentsline {chapter}{\numberline {5}Data Analysis}{39}{chapter.5}}
\@writefile{lof}{\addvspace {10\p@ }}
\@writefile{lot}{\addvspace {10\p@ }}
\newlabel{chap:dataAnalysis}{{5}{39}{Data Analysis}{chapter.5}{}}
\@writefile{toc}{\contentsline {section}{\numberline {5.1}Metadata}{39}{section.5.1}}
\@writefile{toc}{\contentsline {section}{\numberline {5.2}Methods of Data Analysis}{39}{section.5.2}}
\@writefile{toc}{\contentsline {subsection}{\numberline {5.2.1}Google Maps API Scripts}{39}{subsection.5.2.1}}
\@writefile{toc}{\contentsline {subsection}{\numberline {5.2.2}Tableau}{40}{subsection.5.2.2}}
\@writefile{toc}{\contentsline {section}{\numberline {5.3}Results}{40}{section.5.3}}
\@writefile{toc}{\contentsline {subsection}{\numberline {5.3.1}Variance and Quality of Data}{40}{subsection.5.3.1}}
\@writefile{toc}{\contentsline {subsubsection}{Wi-Fi}{40}{section*.54}}
\@writefile{lof}{\contentsline {figure}{\numberline {5.1}{\ignorespaces Variance in 4G and Wi-Fi signal strength over three minutes.\relax }}{41}{figure.caption.53}}
\newlabel{TemporalCourtyard}{{5.1}{41}{Variance in 4G and Wi-Fi signal strength over three minutes.\relax }{figure.caption.53}{}}
\@writefile{toc}{\contentsline {subsubsection}{Mobile Data}{41}{section*.55}}
\@writefile{lof}{\contentsline {figure}{\numberline {5.2}{\ignorespaces The total variance per 4G cell tower from \ref  {TemporalCourtyard}.\relax }}{42}{figure.caption.56}}
\newlabel{TemporalCourtyardVariance}{{5.2}{42}{The total variance per 4G cell tower from \ref {TemporalCourtyard}.\relax }{figure.caption.56}{}}
\@writefile{toc}{\contentsline {subsection}{\numberline {5.3.2}Shadows}{43}{subsection.5.3.2}}
\@writefile{toc}{\contentsline {subsubsection}{Building Shadows}{43}{section*.57}}
\@writefile{lof}{\contentsline {figure}{\numberline {5.3}{\ignorespaces 4G signal strength of each cell tower while walking along a path. The towers labelled as 'connected' represents the time the mobile was connected to that particular tower. The 'disconnected' label represents towers when they weren't currently connected to.\relax }}{43}{figure.caption.58}}
\newlabel{BuildingShadowWallysWalk}{{5.3}{43}{4G signal strength of each cell tower while walking along a path. The towers labelled as 'connected' represents the time the mobile was connected to that particular tower. The 'disconnected' label represents towers when they weren't currently connected to.\relax }{figure.caption.58}{}}
\@writefile{lof}{\contentsline {figure}{\numberline {5.4}{\ignorespaces Map displaying the area represented in \ref  {BuildingShadowWallysWalk}. The red line represents the path taken. In this map tower 283 is marked, tower 138 is a couple kilometres south in the direction approximately perpendicular to the path travelled.\relax }}{44}{figure.caption.59}}
\newlabel{BuildingShadowWallysWalkMap}{{5.4}{44}{Map displaying the area represented in \ref {BuildingShadowWallysWalk}. The red line represents the path taken. In this map tower 283 is marked, tower 138 is a couple kilometres south in the direction approximately perpendicular to the path travelled.\relax }{figure.caption.59}{}}
\@writefile{toc}{\contentsline {subsubsection}{Topography Shadows}{44}{section*.60}}
\@writefile{toc}{\contentsline {subsection}{\numberline {5.3.3}Cell Tower Breathing}{45}{subsection.5.3.3}}
\@writefile{toc}{\contentsline {subsection}{\numberline {5.3.4}Handover Between 3G and 4G}{45}{subsection.5.3.4}}
\newlabel{HandoverBetween3Gand4G}{{5.3.4}{45}{Handover Between 3G and 4G}{subsection.5.3.4}{}}
\@writefile{lof}{\contentsline {figure}{\numberline {5.5}{\ignorespaces Every dot represents a single data point and the line connects each cell tower. Red represents 3G while Blue represents 4G, the darker dots indicate which network it's currently connected to and although not shown each each dot with the same Longitude represents a different cell tower.\relax }}{46}{figure.caption.61}}
\newlabel{3G4GHandover}{{5.5}{46}{Every dot represents a single data point and the line connects each cell tower. Red represents 3G while Blue represents 4G, the darker dots indicate which network it's currently connected to and although not shown each each dot with the same Longitude represents a different cell tower.\relax }{figure.caption.61}{}}
\@writefile{lof}{\contentsline {figure}{\numberline {5.6}{\ignorespaces Map displaying the area represented in \ref  {3G4GHandover}. Each red circle represents the location of a cell tower and each arrow indicates a nearby tower. The Yellow circle indicates a common handover location as seen in Longitude 151.043 of figure \ref  {3G4GHandover}.\relax }}{46}{figure.caption.62}}
\newlabel{3G4GHandoverMap}{{5.6}{46}{Map displaying the area represented in \ref {3G4GHandover}. Each red circle represents the location of a cell tower and each arrow indicates a nearby tower. The Yellow circle indicates a common handover location as seen in Longitude 151.043 of figure \ref {3G4GHandover}.\relax }{figure.caption.62}{}}
\@writefile{toc}{\contentsline {subsection}{\numberline {5.3.5}Further Observations}{46}{subsection.5.3.5}}
\@writefile{toc}{\contentsline {subsubsection}{M2 Consistent Results}{47}{section*.63}}
\@writefile{toc}{\contentsline {subsubsection}{Mapped Mobile Signal Strength}{47}{section*.64}}
\@writefile{toc}{\contentsline {subsubsection}{Cell Tower Coverage}{47}{section*.65}}
\@writefile{toc}{\contentsline {chapter}{\numberline {6}Conclusions and Future Work}{49}{chapter.6}}
\@writefile{lof}{\addvspace {10\p@ }}
\@writefile{lot}{\addvspace {10\p@ }}
\newlabel{chap:Conclusions}{{6}{49}{Conclusions and Future Work}{chapter.6}{}}
\@writefile{toc}{\contentsline {section}{\numberline {6.1}Discussion}{49}{section.6.1}}
\@writefile{toc}{\contentsline {section}{\numberline {6.2}Conclusion}{50}{section.6.2}}
\newlabel{sec:ConclusionsConclusions}{{6.2}{50}{Conclusion}{section.6.2}{}}
\@writefile{toc}{\contentsline {section}{\numberline {6.3}Future Work}{51}{section.6.3}}
\@writefile{toc}{\contentsline {chapter}{\numberline {A}Signal Mapper System Requirements}{53}{appendix.A}}
\@writefile{lof}{\addvspace {10\p@ }}
\@writefile{lot}{\addvspace {10\p@ }}
\newlabel{appendix:requirements}{{A}{53}{Signal Mapper System Requirements}{appendix.A}{}}
\@writefile{toc}{\contentsline {section}{\numberline {A.1}Overview}{53}{section.A.1}}
\@writefile{toc}{\contentsline {section}{\numberline {A.2}System Requirements}{53}{section.A.2}}
\@writefile{lot}{\contentsline {table}{\numberline {A.1}{\ignorespaces Android Application Functional Requirements\relax }}{54}{table.caption.66}}
\newlabel{AAFR}{{A.1}{54}{Android Application Functional Requirements\relax }{table.caption.66}{}}
\@writefile{lot}{\contentsline {table}{\numberline {A.2}{\ignorespaces Android Application Non-Functional Requirements\relax }}{54}{table.caption.67}}
\newlabel{AANFR}{{A.2}{54}{Android Application Non-Functional Requirements\relax }{table.caption.67}{}}
\@writefile{lot}{\contentsline {table}{\numberline {A.3}{\ignorespaces Web Application Functional Requirements\relax }}{55}{table.caption.68}}
\newlabel{WAFR}{{A.3}{55}{Web Application Functional Requirements\relax }{table.caption.68}{}}
\@writefile{lot}{\contentsline {table}{\numberline {A.4}{\ignorespaces Web Application Non-Functional Requirements\relax }}{55}{table.caption.69}}
\newlabel{WANFR}{{A.4}{55}{Web Application Non-Functional Requirements\relax }{table.caption.69}{}}
\@writefile{toc}{\contentsline {chapter}{\numberline {B}User Interface}{57}{appendix.B}}
\@writefile{lof}{\addvspace {10\p@ }}
\@writefile{lot}{\addvspace {10\p@ }}
\newlabel{appendix:ui}{{B}{57}{User Interface}{appendix.B}{}}
\@writefile{lof}{\contentsline {figure}{\numberline {B.1}{\ignorespaces Polling screen in Automatic mode (left). Polling screen in manual mode (right). \relax }}{58}{figure.caption.70}}
\@writefile{lof}{\contentsline {figure}{\numberline {B.2}{\ignorespaces Survey setup screen (left). Cache screen (right)\relax }}{59}{figure.caption.71}}
\@writefile{lof}{\contentsline {figure}{\numberline {B.3}{\ignorespaces About screen (left). Navigation sidebar (right).\relax }}{60}{figure.caption.72}}
\@writefile{lof}{\contentsline {figure}{\numberline {B.4}{\ignorespaces Settings Screen with sample Wi-Fi, Mobile and Location data from top left to bottom right.\relax }}{61}{figure.caption.73}}
\@writefile{lof}{\contentsline {figure}{\numberline {B.5}{\ignorespaces Home page with description on top, search page below.\relax }}{62}{figure.caption.74}}
\@writefile{lof}{\contentsline {figure}{\numberline {B.6}{\ignorespaces Maps page displaying results from a single 4g tower. Maps view on top and Satellite view below.\relax }}{63}{figure.caption.75}}
\@writefile{lof}{\contentsline {figure}{\numberline {B.7}{\ignorespaces The script editor page loaded with a script that displays coloured circles with a range that corresponds to RSRP scale.\relax }}{64}{figure.caption.76}}
\@writefile{toc}{\contentsline {chapter}{\numberline {C}Figures and Graphics}{65}{appendix.C}}
\@writefile{lof}{\addvspace {10\p@ }}
\@writefile{lot}{\addvspace {10\p@ }}
\@writefile{toc}{\contentsline {section}{\numberline {C.1}Figures}{65}{section.C.1}}
\@writefile{toc}{\contentsline {subsection}{\numberline {C.1.1}Wi-Fi Signal Variance}{65}{subsection.C.1.1}}
\@writefile{lof}{\contentsline {figure}{\numberline {C.1}{\ignorespaces The variance found across Wi-Fi access points in the courtyard outside of E6A taken over a number of days. Each bar represents the maximum signal strength found from a particular access point minus its minimum signal strength. The depth of the blue colour indicates how often that particular access point was measured.\relax }}{65}{figure.caption.77}}
\newlabel{Wi-Fi-Variance}{{C.1}{65}{The variance found across Wi-Fi access points in the courtyard outside of E6A taken over a number of days. Each bar represents the maximum signal strength found from a particular access point minus its minimum signal strength. The depth of the blue colour indicates how often that particular access point was measured.\relax }{figure.caption.77}{}}
\@writefile{toc}{\contentsline {subsection}{\numberline {C.1.2}M2 Signal Variance}{66}{subsection.C.1.2}}
\@writefile{lof}{\contentsline {figure}{\numberline {C.2}{\ignorespaces Signal strength split by day.\relax }}{66}{figure.caption.78}}
\newlabel{M2DailySignal}{{C.2}{66}{Signal strength split by day.\relax }{figure.caption.78}{}}
\@writefile{lof}{\contentsline {figure}{\numberline {C.3}{\ignorespaces Signal strength split by day of the week.\relax }}{66}{figure.caption.79}}
\newlabel{M2WeekDaySignal}{{C.3}{66}{Signal strength split by day of the week.\relax }{figure.caption.79}{}}
\@writefile{toc}{\contentsline {section}{\numberline {C.2}Graphics}{66}{section.C.2}}
\@writefile{toc}{\contentsline {subsection}{\numberline {C.2.1}Signal Strength Maps}{66}{subsection.C.2.1}}
\@writefile{lof}{\contentsline {figure}{\numberline {C.4}{\ignorespaces Signal strength split by hour of the day.\relax }}{67}{figure.caption.80}}
\newlabel{M2HourlySignal}{{C.4}{67}{Signal strength split by hour of the day.\relax }{figure.caption.80}{}}
\@writefile{lof}{\contentsline {figure}{\numberline {C.5}{\ignorespaces Maps view of LTE signal strength over the M2 and of the areas covered by particular cell towers.\relax }}{67}{figure.caption.81}}
\newlabel{M2LTEMap}{{C.5}{67}{Maps view of LTE signal strength over the M2 and of the areas covered by particular cell towers.\relax }{figure.caption.81}{}}
\@writefile{lof}{\contentsline {figure}{\numberline {C.6}{\ignorespaces Maps view of LTE signal strength over the M2.\relax }}{68}{figure.caption.82}}
\newlabel{MacLTEMap}{{C.6}{68}{Maps view of LTE signal strength over the M2.\relax }{figure.caption.82}{}}
\@writefile{lof}{\contentsline {figure}{\numberline {C.7}{\ignorespaces Maps view of areas covered by particular LTE cell towers.\relax }}{69}{figure.caption.83}}
\newlabel{MacLTETowers}{{C.7}{69}{Maps view of areas covered by particular LTE cell towers.\relax }{figure.caption.83}{}}
\@writefile{toc}{\contentsline {chapter}{\numberline {D}Code Samples}{71}{appendix.D}}
\@writefile{lof}{\addvspace {10\p@ }}
\@writefile{lot}{\addvspace {10\p@ }}
\@writefile{toc}{\contentsline {section}{\numberline {D.1}Maps API Script Example}{71}{section.D.1}}
\@writefile{lol}{\contentsline {lstlisting}{\numberline {D.1}Script to draw to Google Maps configured for LTE}{71}{lstlisting.D.1}}
\bibstyle{IEEEtranS}
\bibdata{my_reference}
\@writefile{toc}{\contentsline {chapter}{Bibliography}{72}{section*.84}}
\bibcite{802.11Standard}{1}
\bibcite{Shakil2008}{2}
\bibcite{3gpp.23.009}{3}
\bibcite{3gpp.23.003}{4}
\bibcite{OptusLicences}{5}
\bibcite{Bug60430}{6}
\bibcite{AndroidSignalStrength}{7}
\bibcite{VNI2008}{8}
\bibcite{VNI2015}{9}
\bibcite{Tu2013}{10}
\bibcite{Gudmundson1994}{11}
\bibcite{Lin2004}{12}
\bibcite{Bakker1999}{13}
\bibcite{Chen2004}{14}
\bibcite{Chin2015}{15}
\bibcite{Stemm1998}{16}
\bibcite{Motorola2009}{17}
\bibcite{5gmobile}{18}
\bibcite{Pedersen2016}{19}
\bibcite{Ye2013}{20}
\bibcite{Goswami2012}{21}
\bibcite{Yang2006}{22}
